Visualization
…
---

## Diamonds

```r
set.seed(20191014)
diamonds = sample_n(ggplot2::diamonds, 1000)
diamonds
```

```
## # A tibble: 1,000 x 10
##    carat cut       color clarity depth table price     x     y     z
##    <dbl> <ord>     <ord> <ord>   <dbl> <dbl> <int> <dbl> <dbl> <dbl>
##  1  0.39 Ideal     I     SI1      62.4    54   534  4.67  4.69  2.92
##  2  0.41 Premium   E     SI1      61.1    62   904  4.83  4.76  2.93
##  3  0.51 Very Good D     VS2      62.2    57  1678  5.11  5.14  3.19
##  4  0.34 Ideal     G     VS2      62.4    57   517  4.46  4.48  2.79
##  5  1.26 Very Good G     SI1      63.3    58  7910  6.88  6.84  4.34
##  6  0.43 Good      F     SI1      63.6    53   948  4.83  4.79  3.06
##  7  0.93 Premium   I     VS2      62.7    61  4073  6.24  6.14  3.88
##  8  1.14 Premium   I     SI1      62.2    58  4788  6.7   6.67  4.16
##  9  0.36 Fair      F     VS1      55.3    67   810  4.79  4.72  2.63
## 10  0.33 Ideal     F     VVS2     61.4    57   824  4.43  4.46  2.73
## # … with 990 more rows
```
…
```r
tidy_anscombe = datasets::anscombe %>%
  pivot_longer(everything(), names_sep = 1, names_to = c("var", "group")) %>%
  group_by(group, var) %>%
  mutate(index = seq_len(n())) %>%
  ungroup() %>%
  arrange(group, index) %>%
  pivot_wider(id_cols = c("group", "index"), names_from = var, values_from = value)
  
tidy_anscombe
```

```
## # A tibble: 44 x 4
##    group index     x     y
##    <chr> <int> <dbl> <dbl>
##  1 1         1    10  8.04
##  2 1         2     8  6.95
##  3 1         3    13  7.58
##  4 1         4     9  8.81
##  5 1         5    11  8.33
##  6 1         6    14  9.96
##  7 1         7     6  7.24
##  8 1         8     4  4.26
##  9 1         9    12 10.8 
## 10 1        10     7  4.82
## # … with 34 more rows
```
…
<img src="Lec05_files/figure-html/unnamed-chunk-32-1.png" style="display: block; margin: auto;" />

---

## DatasauRus

.pull-left33[

```r
datasauRus::datasaurus_dozen
```

```
## # A tibble: 1,846 x 3
##    dataset     x     y
##    <chr>   <dbl> <dbl>
##  1 dino     55.4  97.2
##  2 dino     51.5  96.0
##  3 dino     46.2  94.5
##  4 dino     42.8  91.4
##  5 dino     40.8  88.3
##  6 dino     38.7  84.9
##  7 dino     35.6  79.9
##  8 dino     33.1  77.6
##  9 dino     29.0  74.5
## 10 dino     26.2  71.4
## # … with 1,836 more rows
```
…
